code,ShortName,ShortDescription,LongName,Notes,RDFUrl
a,aaa,"a desc",aaaaa,NotesABC,https://example.com/21Q2/unique_a
b,bbb,"b desc",bbbbb,NotesABC,https://example.com/21Q2/unique_b
A,AAA,"A container desc",AAAAA,NotesABC,https://example.com/21Q2/unique_A
